.
├── assets
│   ├── css
│   │   └── normalize.css
│   └── js
│       └── redirect.js
├── azure-pipelines.yml
├── blog
│   └── index.html
├── dev
│   └── index.html
├── gitlab
│   └── index.html
├── hkbus
│   └── index.html
├── index.html
├── LICENSE
├── lihkg
│   └── index.html
├── mail
│   └── index.html
├── main.py
├── mirror
│   └── index.html
├── o
│   ├── 28cC11
│   │   └── index.html
│   ├── 783Jo8
│   │   └── index.html
│   ├── 7K5gj4
│   │   └── index.html
│   ├── 91K1k6
│   │   └── index.html
│   ├── bono
│   │   └── index.html
│   ├── Ku3140
│   │   └── index.html
│   ├── N2ex99
│   │   └── index.html
│   ├── N67i78
│   │   └── index.html
│   ├── O57x2c
│   │   └── index.html
│   ├── Oa8958
│   │   └── index.html
│   ├── r2
│   │   └── index.html
│   ├── r3
│   │   └── index.html
│   ├── r4
│   │   └── index.html
│   ├── ra
│   │   └── index.html
│   ├── S7m8j8
│   │   └── index.html
│   └── sa
│       └── index.html
├── pg_options.txt
├── poetry.lock
├── push.sh
├── __pycache__
│   └── wcyatfiles.cpython-38.pyc
├── pyproject.toml
├── r
│   └── index.html
├── random-generator
│   ├── LICENSE
│   ├── pg.cpp
│   ├── pg_options.txt
│   ├── README.md
│   └── spg.run
├── raw
│   └── ig
│       └── index.html
├── README.md
├── repos
│   ├── ehs
│   │   └── index.html
│   ├── ig-us
│   │   └── index.html
│   ├── mirror
│   │   └── index.html
│   ├── notes
│   │   └── index.html
│   ├── pg.wcyat.me
│   │   └── index.html
│   ├── r.wcyat.me
│   │   └── index.html
│   ├── spg
│   │   └── index.html
│   ├── tgvotebot
│   │   └── index.html
│   ├── wcyat.me
│   │   └── index.html
│   └── wcyat.me-dev
│       └── index.html
├── tg
│   └── index.html
├── tree.txt
├── warsinhk
│   └── index.html
├── wcyat
│   ├── index.html
│   └── origin
│       └── index.html
├── wcyatfiles.py
└── yt
    └── rickrolled
        └── index.html

49 directories, 59 files
